testCases/TC_002_Register_RegisterUserWithValidation.class
testCases/TestSuite_TSC_003_Login.class
models/User.class
base/TestBase.class
testCases/TC001_Register_SendData.class
testCases/TestSuite_TSC_005_Profile.class
testCases/TestSuite_TSC_007_ForgotPassword.class
testCases/TC002_Register_CheckDataInDatabase.class
testCases/TestSuite_TSC_008_Transaction.class
testCases/TestSuite001_TC_001.class
testCases/TC_001_Register_InsertDataUser.class
G2ProjectRestAssuredAutomation/G2ProjectRestAssuredAutomation/AppTest.class
testCases/TestSuite_TSC_001_Register.class
testCases/TestSuite001_TC_002.class
testCases/TSC_001_Register.class
testCases/TestSuite_TSC_004_Logout.class
testCases/TestSuite_TSC_006_UpdateProfile.class
testCases/BackupUpdateProfile.class
utilities/Listeners.class
testCases/TestSuite_TSC_002_ActivateAccount.class
